﻿[
  
  {
    "Title": "【安伯特】 悠活絨布車用充氣床 兒童防墜氣墊 大空間車床 露營床(含電動打氣機)",
    "Image": "https://www.abcmore.com.tw/content/images/thumbs/0003357_-_550.jpeg",
    "Link": "https://www.abcmore.com.tw/goods-安伯特-悠活絨布車用充氣床-兒童防墜氣墊-大空間車床-露營床含電動打氣機",
    "OriginalPrice": "1980",
    "DiscountedPrice": "850"

  },
  {
    "Title": "象王 車用油壓千斤頂(5T)附精美收納盒",
    "Image": "https://www.abcmore.com.tw/content/images/thumbs/0003363_-5t-.jpeg",
    "Link": "https://www.abcmore.com.tw/goods-象王-車用油壓千斤頂5t-附精美收納盒",
    "OriginalPrice": "1288",
    "DiscountedPrice": "599 "

  },
  {
    "Title": "象專業吸吹兩用無線吸塵器",
    "Image": "https://www.abcmore.com.tw/content/images/thumbs/0008706.jpeg",
    "Link": "https://www.abcmore.com.tw/goods-專業吸吹兩用無線吸塵器",
    "OriginalPrice": "1900",
    "DiscountedPrice": "614"

  },
  {
    "Title": "HOT全合成10W40SN機油汽車保養套餐(送油芯免工資)",
    "Image": "https://www.abcmore.com.tw/content/images/thumbs/0003333_hot10w40sn.jpeg",
    "Link": "https://www.abcmore.com.tw/goods-全台-hot全合成10w-40-sn級-機油汽車保養套餐送機油芯免工資",
    "OriginalPrice": "2100",
    "DiscountedPrice": "1553"

  },
  {
    "Title": "【麗車坊】德國馬牌輪胎 CC6 215/55/16 93V 【18608】四入組",

    "Image": "https://www.abcmore.com.tw/content/images/thumbs/0003907_-cc6-2155516-93v-18608.jpeg",
    "Link": "https://www.abcmore.com.tw/goods-麗車坊德國馬牌輪胎-cc6-2155516-93v-18608四入組",
    "OriginalPrice": "24800",
    "DiscountedPrice": "13600"

  },
  {
    "Title": "【麗車坊】德國馬牌輪胎 EC5 215/60/16 99V 【14669】四入組",
    "Image": "https://www.abcmore.com.tw/content/images/thumbs/0003915_-ec5-2156016-99v-14669.jpeg",
    "Link": "https://www.abcmore.com.tw/goods-麗車坊德國馬牌輪胎-ec5-2156016-99v-14669四入組",
    "OriginalPrice": "26200",
    "DiscountedPrice": "14400"

  },

  {
    "Title": "義大利Pirelli倍耐力輪胎 P1 cint 195/65R15 (四條含安裝及定位)",
    "Image": "https://www.abcmore.com.tw/content/images/thumbs/0008363_pirelli-p1-cint-19565r15-.jpeg",
    "Link": "https://www.abcmore.com.tw/goods-義大利pirelli倍耐力輪胎-p1-cint-19565r15-四條含安裝及定位",
    "OriginalPrice": "10500",
    "DiscountedPrice": "8798"

  },
  {
    "Title": "米其林PRIMACY 4 225/45 R17 四入組【台灣官方販售】",
    "Image": "https://www.abcmore.com.tw/content/images/thumbs/0007784_primacy-4-22545-r17-.jpeg",
    "Link": "https://www.abcmore.com.tw/goods-米其林primacy-4-22545-r17-四入組台灣官方販售",
    "OriginalPrice": "10500",
    "DiscountedPrice": "8798"

  },
  {
    "Title": "ACDelco歐系軟骨 FORD MONDEO MK4專用雨刷組合(26+19吋)",
    "Image": "https://www.abcmore.com.tw/content/images/thumbs/0002985_acdelco-ford-mondeo-mk42619.jpeg",
    "Link": "https://www.abcmore.com.tw/goods-acdelco歐系軟骨-ford-mondeo-mk4專用雨刷組合2619吋",
    "OriginalPrice": "799",
    "DiscountedPrice": "639"

  },

  {
    "Title": "Arkbaria Precious黑羽鍍膜 終極三層型 （小型車）特惠方案",
    "Image": "https://www.abcmore.com.tw/content/images/thumbs/0002334_arkbaria-precious-.jpeg",
    "Link": "https://www.abcmore.com.tw/goods-arkbaria-precious黑羽鍍膜-終極三層型-小型車特惠方案",
    "OriginalPrice": "",
    "DiscountedPrice": "28800"

  },

  {
    "Title": "LEXUS IS 99~04 日本原裝KYB NEW SR藍筒避震器 (免運)",
    "Image": "https://www.abcmore.com.tw/content/images/thumbs/0004239_lexus-is-9904-kyb-new-sr-.jpeg",
    "Link": "https://www.abcmore.com.tw/goods-lexus-is-9904-日本原裝kyb-new-sr藍筒避震器-免運",
    "OriginalPrice": "17000",
    "DiscountedPrice": "15630"

  },
  {
    "Title": "PHILIPS 飛利浦 四倍壽命環保車燈 H7",
    "Image": "https://www.abcmore.com.tw/content/images/thumbs/0003050_philips-h7.jpeg",
    "Link": "https://www.abcmore.com.tw/goods-philips-飛利浦-四倍壽命環保車燈-h7",
    "OriginalPrice": "510",
    "DiscountedPrice": "400"

  }
]



 
